<!-- Generator: Adobe Illustrator 19.2.1, SVG Export Plug-In  -->
<svg version="1.1"
	 xmlns="http://www.w3.org/2000/svg" xmlns:xlink="http://www.w3.org/1999/xlink" xmlns:a="http://ns.adobe.com/AdobeSVGViewerExtensions/3.0/"
	 x="0px" y="0px" width="958px" height="8px" viewBox="0 0 958 8" style="enable-background:new 0 0 958 4.2;"
	 xml:space="preserve">
<style type="text/css">
	.st0{fill-rule:evenodd;clip-rule:evenodd;fill:#999FA4;}
</style>
<defs>
</defs>
<path class="st0" d="M186,0.2c257.3,0.7,514.7,1.3,772,2c-0.3,0.7-0.7,1.3-1,2c-319,0-638,0-957,0c0-0.3,0-0.7,0-1
	c8.3-5.8,34.5-2,47-2C93.3,0.9,139.7,0.6,186,0.2z"/>
</svg>
