<!-- Generator: Adobe Illustrator 19.2.1, SVG Export Plug-In  -->
<svg version="1.1"
	 xmlns="http://www.w3.org/2000/svg" xmlns:xlink="http://www.w3.org/1999/xlink" xmlns:a="http://ns.adobe.com/AdobeSVGViewerExtensions/3.0/"
	 x="0px" y="0px" width="354px" height="94px" viewBox="0 0 176.6 46.8" style="enable-background:new 0 0 176.6 46.8;"
	 xml:space="preserve">
<style type="text/css">
	.st0{fill-rule:evenodd;clip-rule:evenodd;fill:#7C8187;}
	.st1{fill:#FFFFFF;}
</style>
<defs>
</defs>
<g>
	<path class="st0" d="M130.9,45.9c1.3-1.3,2.5-2.8,3.4-4.4c-0.5,0-1,0-1.5,0c-0.5,0-1,0.1-1.4,0.1c-0.1,0-0.2,0.1-0.3,0.2
		c-0.4,0.5-0.7,0.9-1,1.4c-0.5,0.6-1.1,1.3-1.6,1.9c-0.2,0.2-0.4,0.4-0.6,0.6c-0.1,0.1-0.2,0.2-0.3,0.3c-0.1-0.1-0.2-0.3-0.3-0.4
		c-0.2-0.2-0.2-0.3,0-0.5c0.2-0.2,0.5-0.3,0.5-0.7c0.5-0.2,0.6-0.7,1-1.1c0.4-0.4,0.8-0.9,1.2-1.4c0,0,0-0.1,0.1-0.3
		c-0.3,0-0.5,0.1-0.8,0.1c-0.2,0-0.5,0-0.7,0c-0.3,0-0.5,0-0.7,0.3c-0.5,0.5-1,0.9-1.5,1.4c-0.3,0.4-0.7,0.8-1,1.1
		c-0.2,0.2-0.5,0.5-0.6,0.7c-0.1,0.2-0.1,0.6-0.2,0.8c-0.1,0.1-0.2,0.3-0.3,0.3c-0.3,0.1-0.5,0.5-0.8,0.2c-0.4-0.4-0.4-0.8,0-1.2
		c0.3-0.3,0.6-0.6,0.9-0.9c0.2-0.2,0.5-0.3,0.7-0.5c0,0,0.1-0.1,0.1-0.1c0-0.3,0.2-0.3,0.3-0.5c0.4-0.4,0.7-0.8,1.1-1.2
		c0.1-0.1,0.2-0.3,0.3-0.5c-0.2,0-0.5-0.1-0.7-0.1c-0.8-0.1-1.5-0.1-2.3-0.1c-0.6,0-1.1,0.4-1.4,0.8c-0.3,0.3-0.5,0.7-0.7,1.1
		c-0.2,0.2-0.4,0.4-0.6,0.6c-0.1,0.1-0.2,0.3-0.3,0.4c-0.2,0.3-0.4,0.5-0.6,0.8c0,0-0.1,0.1-0.1,0.1c0.1,0.7-0.5,0.9-0.9,1.2
		c-0.1,0.1-0.4,0.2-0.5,0c-0.3-0.4-0.3-0.6-0.1-0.8c0.5-0.5,1-1.1,1.3-1.7c0.1-0.2,0.4-0.4,0.5-0.6c0.1-0.2,0.2-0.4,0.4-0.6
		c0.3-0.3,0.6-0.7,0.9-1c0.1-0.1,0.2-0.2,0.3-0.4c-0.6,0-1,0-1.5,0c-0.3,0-0.6-0.1-0.9-0.1c-0.4,0-0.7,0-1.1,0
		c-0.4,0-0.6,0.4-0.8,0.6c-0.3,0.3-0.6,0.6-0.9,0.9c-0.1,0.1-0.2,0.3-0.3,0.5c-0.2,0.3-0.5,0.6-0.7,0.9c-0.4,0.4-0.8,0.8-0.9,1.3
		c-0.1,0.4-0.4,0.4-0.7,0.5c-0.2,0.1-0.4-0.4-0.4-0.6c0.1-0.6,0.6-0.9,0.9-1.3c0.5-0.7,1.1-1.3,1.7-1.9c0.1-0.1,0.3-0.2,0.4-0.4
		c0.1-0.1,0.1-0.2,0.1-0.3c-0.1,0-0.2-0.1-0.3-0.1c-0.7,0-1.5-0.1-2.2-0.1c-0.4,0-0.9,0-1.3,0c-0.1,0-0.2,0.1-0.2,0.1
		c-0.2,0.1-0.4,0.3-0.6,0.4c-0.2,0.2-0.4,0.5-0.6,0.7c-0.2,0.2-0.4,0.5-0.6,0.7c-0.6,0.6-1.1,1.1-1.6,1.8c-0.2,0.3-0.3,0.4-0.2,0.7
		c0,0,0,0.1,0,0.1c-0.4,0.3-0.7,0.6-1.1,0.9c-0.3,0.2-0.5,0-0.6-0.3c0-0.2-0.2-0.4,0.1-0.6c0.3-0.2,0.5-0.7,0.8-1
		c0.1-0.2,0.3-0.3,0.4-0.4c0.2-0.3,0.5-0.5,0.7-0.8c0.1-0.1,0.1-0.2,0.1-0.3c0.6-0.7,1.1-1.4,1.7-2.1c0,0-0.1-0.1-0.1-0.1
		c-0.5,0-1.1,0-1.6,0.1c-0.4,0-0.8,0-1.2,0.1c-0.1,0-0.1,0.1-0.2,0.1c-0.5,0.3-0.6,0.9-1,1.3c-0.4,0.4-0.7,1-1.1,1.4
		c-0.4,0.5-0.6,1-0.9,1.5c-0.2,0.3-0.6,0.5-0.9,0.7c-0.1,0.1-0.2,0.1-0.3,0.1c-0.4-0.3-0.5-0.7-0.2-1.1c0.1-0.2,0.3-0.4,0.4-0.6
		c0.4-0.4,0.8-0.8,1.2-1.3c0.2-0.2,0.4-0.5,0.6-0.8c0.2-0.3,0.4-0.7,0.6-1c0.1-0.1,0.1-0.3,0.2-0.4c-0.4,0-0.8-0.1-1.2-0.1
		c-0.2,0-0.5,0-0.7,0c-0.3,0-0.6-0.1-0.9-0.1c-0.3,0-0.6,0-0.9,0.2c-0.2,0.2-0.3,0.4-0.5,0.6c-0.4,0.4-0.8,0.9-1.2,1.3
		c-0.2,0.2-0.4,0.5-0.6,0.7c-0.2,0.3-0.4,0.7-0.8,0.9c-0.2,0.1-0.2,0.4-0.3,0.6c-0.1,0.5-0.5,0.7-0.9,0.9c-0.1,0.1-0.4,0-0.5-0.2
		c-0.1-0.1-0.1-0.4-0.1-0.5c0.1-0.2,0.2-0.3,0.4-0.5c0.1-0.2,0.3-0.4,0.4-0.5c0.1-0.2,0.3-0.4,0.4-0.5c0.5-0.6,1.1-1.3,1.6-1.9
		c0.2-0.3,0.5-0.6,0.7-0.9c0,0,0-0.1,0.1-0.2c-0.4,0-0.7-0.1-1.1-0.1c-0.6,0-1.1,0.1-1.7,0c-1-0.2-1.6,0.5-2.3,0.9
		c-0.3,0.2-0.4,0.6-0.6,0.8c-0.2,0.2-0.4,0.5-0.6,0.7c0,0-0.1,0.1-0.1,0.2c-0.1,0.2-0.1,0.4-0.2,0.6c-0.4,0.4-0.7,0.7-0.6,1.3
		c0,0,0,0.1-0.1,0.2c-0.3,0.2-0.6,0.5-0.9,0.6c-0.1,0.1-0.4-0.1-0.6-0.2c-0.1-0.1-0.2-0.3,0.1-0.6c0.5-0.5,0.9-1,1.3-1.6
		c0.2-0.3,0.4-0.7,0.6-1c0.4-0.5,0.8-1.1,1.1-1.6c0-0.1,0.1-0.1,0.1-0.2c-0.4-0.1-0.8-0.2-1.1-0.2c-0.9,0-1.7,0-2.6,0
		c-0.1,0-0.3,0.1-0.4,0.2c-0.4,0.4-0.7,0.8-1.1,1.2c-0.3,0.3-0.5,0.6-0.8,0.9c-0.1,0.1-0.1,0.2-0.2,0.3c-0.1,0.1-0.1,0.2-0.2,0.3
		c-0.4,0.4-0.7,0.7-1.1,1.1c0,0-0.1,0.1-0.1,0.1c0,0.6-0.4,0.7-0.8,1c-0.1,0.1-0.3,0.1-0.4,0c-0.1,0-0.1-0.2-0.2-0.4
		c-0.1-0.5,0.2-0.7,0.6-0.9c0.2-0.1,0.4-0.3,0.5-0.6c0.2-0.4,0.4-0.8,0.8-0.9c0.1,0,0.2-0.1,0.2-0.1c0.4-0.6,0.9-1.2,1.3-1.8
		c0.1-0.1,0.1-0.3,0.2-0.4c-0.1,0-0.3-0.1-0.4-0.1c-0.8,0-1.6,0-2.4-0.1c-0.5,0-0.7,0.3-0.9,0.7c-0.3,0.5-0.7,0.9-1.1,1.4
		c-0.1,0.1-0.2,0.2-0.2,0.4c0,0.2-0.2,0.3-0.3,0.4c-0.2,0.2-0.3,0.5-0.5,0.7c-0.2,0.4-0.4,0.8-0.7,1.1c-0.2,0.2-0.5,0.4-0.7,0.6
		c-0.1,0.1-0.3,0.1-0.4-0.2c-0.1-0.4-0.2-0.7,0.3-1c0.3-0.2,0.5-0.6,0.7-1c0.3-0.4,0.5-0.9,0.8-1.3c0.2-0.3,0.6-0.6,0.8-0.9
		c0.2-0.2,0.2-0.5,0.3-0.7c0.1-0.1,0.2-0.2,0.3-0.4c-0.1,0-0.2-0.1-0.3-0.1c-0.5,0-1,0-1.5,0c-0.5,0-1.1,0-1.6,0.1
		c-0.3,0.1-0.7,0.3-0.9,0.5c-0.5,0.4-0.9,0.9-1.4,1.3c-0.1,0.1-0.2,0.3-0.2,0.4c-0.5,0.7-1,1.3-1.5,2c-0.2,0.3-0.4,0.6-0.7,0.9
		c-0.2,0.2-0.4,0.3-0.7,0.5c0,0-0.2-0.1-0.3-0.2c-0.1-0.1-0.1-0.3-0.1-0.5c0.5-0.5,0.9-1,1.4-1.6c0.4-0.6,1-1,1.4-1.6
		c0.4-0.6,0.9-1.1,1.4-1.7c-0.6,0-1.1,0.1-1.6,0.1c-0.6,0-1.2,0-1.9,0.1c-0.6,0-1.1,0.1-1.7,0.1c-0.1,0-0.2,0.1-0.2,0.1
		c-0.2,0.3-0.6,0.5-0.6,0.8c-0.1,0.5-0.7,0.6-0.8,1.1c-0.1,0.4-0.6,0.8-0.9,1.2c-0.4,0.6-1,1.1-1.3,1.8c-0.2,0.4-0.7,0.7-0.9,0.6
		c-0.3,0-0.4-0.2-0.3-0.5c0.1-0.3,0.2-0.6,0.5-0.8c0.2-0.1,0.2-0.4,0.4-0.6c0.3-0.3,0.7-0.5,0.9-0.9c0.5-0.7,0.9-1.4,1.4-2.1
		c0.2-0.3,0.4-0.5,0.5-0.8c0,0,0-0.1,0-0.1c-0.4,0-0.8,0-1.1,0c-0.4,0-0.8,0-1.2,0c-0.5,0-1-0.1-1.4,0.2c-0.3,0.2-0.6,0.3-0.8,0.7
		c-0.1,0.3-0.5,0.5-0.7,0.8c-0.2,0.3-0.4,0.6-0.6,0.9c-0.4,0.5-0.8,1.1-1.2,1.6c-0.2,0.2-0.2,0.6-0.5,0.8c-0.2,0.2-0.4,0.2-0.6,0
		c-0.1-0.1-0.2-0.3-0.4-0.5c1.1-1.4,2.4-2.8,3.5-4.4c-0.9,0.1-1.6,0.1-2.4,0.2c-0.2,0-0.4,0-0.6-0.1c-0.3,0-0.6,0.1-0.8,0.4
		c-0.3,0.4-0.6,0.8-0.9,1.2c-0.5,0.7-1.1,1.4-1.6,2c-0.4,0.4-0.5,0.8-0.8,1.3c-0.2,0.3-0.5,0.5-0.8,0.7c-0.2,0.1-0.4-0.1-0.5-0.3
		c-0.1-0.4,0.1-0.7,0.4-1c0.5-0.5,1-0.9,1.4-1.5c0.2-0.3,0.5-0.6,0.8-0.9c0.1-0.2,0.3-0.4,0.4-0.5c0.3-0.4,0.6-0.8,0.8-1.1
		c0,0,0-0.1-0.1-0.1c-0.2,0-0.5,0-0.7,0c-0.5,0-1.1-0.1-1.6-0.1c-0.2,0-0.4,0.1-0.5,0.2c-0.3,0.3-0.6,0.6-0.8,0.9
		c-0.6,0.6-1.1,1.3-1.7,1.9c-0.4,0.5-0.8,1-1.1,1.5c-0.2,0.2-0.4,0.5-0.6,0.6c-0.2,0.2-0.7-0.1-0.7-0.5c0-0.2,0-0.4,0.3-0.6
		c0.4-0.3,0.9-0.6,1.2-1c0.3-0.3,0.5-0.6,0.7-1c0.2-0.2,0.3-0.6,0.5-0.7c0.6-0.3,0.7-1,1.1-1.5c-0.3,0-0.5-0.1-0.7-0.1
		c-1,0-2,0-3-0.1c-0.5,0-0.7,0.2-1,0.6c-0.4,0.6-0.8,1.2-1.2,1.7c-0.3,0.4-0.7,0.9-1,1.3c-0.4,0.4-0.8,0.8-1.1,1.3
		c-0.1,0.2-0.2,0.4-0.3,0.6c-0.1,0.1-0.2,0.2-0.2,0.3c-0.3,0.4-0.6,0.2-0.9,0.2c-0.2-0.7,0.3-1.1,0.8-1.5c0.3-0.2,0.5-0.4,0.6-0.8
		c0.1-0.3,0.4-0.6,0.7-0.9c0.2-0.3,0.5-0.6,0.7-0.9c0.3-0.4,0.7-0.7,1-1.1c0.2-0.2,0.3-0.4,0.5-0.6c-0.1,0-0.1-0.1-0.2-0.1
		c-0.5,0-1.1,0-1.6,0c-0.4,0-0.7,0-1.1,0c-0.3,0-0.7,0-1,0.1c-0.4,0.2-0.7,0.6-1,0.9c-0.5,0.6-1,1.2-1.4,1.9
		c-0.3,0.4-0.6,0.7-0.8,1.2c-0.1,0.4-0.5,0.7-0.7,1c-0.2,0.4-0.6,0.5-0.9,0.7c-0.1,0-0.3-0.2-0.4-0.3c-0.3-0.3-0.3-0.5-0.1-0.8
		c0.1-0.1,0.3-0.3,0.5-0.3c0.6-0.1,0.7-0.6,1-1c0.3-0.5,0.7-1,1-1.5c0.4-0.6,0.8-1.2,1.3-1.8c-0.1,0-0.2-0.1-0.4-0.1
		c-1,0-2,0-2.9,0.1c-0.1,0-0.2,0.1-0.3,0.2c-0.2,0.4-0.5,0.8-0.7,1.2c-0.1,0.2-0.2,0.4-0.4,0.5c-0.4,0.3-0.6,0.7-0.8,1.1
		c-0.2,0.2-0.4,0.4-0.6,0.6c-0.2,0.2-0.2,0.4-0.4,0.6c-0.2,0.3-0.4,0.6-0.7,0.9c-0.1,0.1-0.4,0-0.5-0.1c-0.2-0.1-0.3-0.3-0.5-0.5
		c0.3-0.3,0.7-0.6,1-0.9c0.1-0.1,0.1-0.2,0.1-0.2c0.1-0.2,0.2-0.5,0.5-0.4c0.1,0,0.2-0.2,0.2-0.3c0.1-0.1,0.1-0.2,0.2-0.3
		c0.3-0.4,0.6-0.8,0.9-1.3c0.2-0.3,0.3-0.7,0.4-1c-0.6,0-1.3,0-2,0c-0.3,0-0.5-0.1-0.8-0.1c-0.3,0-0.6,0-0.8,0.1
		c-0.2,0.1-0.3,0.4-0.4,0.5c-0.4,0.6-0.8,1.2-1.3,1.7c-0.5,0.5-0.8,1.1-1.2,1.6c-0.2,0.2-0.4,0.4-0.5,0.6c-0.1,0.1-0.1,0.2-0.1,0.2
		c-0.1,0.5-0.6,0.9-1.1,0.9c-0.1,0-0.3-0.1-0.5-0.2c0.1-0.1-0.3-0.3,0.1-0.4c0.1-0.6,0.7-0.6,0.9-1.1c0.2-0.4,0.6-0.8,0.9-1.1
		c0.7-0.7,1.1-1.6,1.7-2.3c0.1-0.2,0.3-0.4,0.4-0.6c-0.6,0-1.2-0.1-1.7-0.1c-0.7,0-1.3,0-2,0c-0.2,0-0.4,0.3-0.6,0.5
		c-0.4,0.5-0.8,1-1.1,1.5c-0.3,0.4-0.5,0.9-0.7,1.3c-0.3,0.5-0.5,0.9-0.8,1.4c-0.2,0.2-0.3,0.5-0.6,0.7c-0.1,0.1-0.4,0-0.5-0.1
		c-0.1-0.2-0.2-0.6-0.2-0.7c0.3-0.5,0.6-1,1-1.5c0.5-0.7,1-1.4,1.5-2.1c0.2-0.3,0.3-0.6,0.5-1c-0.5,0-0.9,0-1.4,0
		c-0.6,0-1.1,0-1.7-0.1c-0.3,0-0.4,0.1-0.5,0.3c-0.3,0.7-0.6,1.3-1,2c-0.4,0.6-0.8,1.2-1.2,1.8c-0.2,0.2-0.3,0.5-0.4,0.8
		c-0.1,0.1-0.1,0.3-0.2,0.4c-0.1,0.2-0.3,0.4-0.6,0.3c-0.2-0.1-0.4-0.2-0.5-0.5c0-0.1-0.1-0.1-0.2-0.3c0.2-0.1,0.4-0.2,0.5-0.3
		c0.5-0.6,1.2-1.1,1.5-1.9c0.1-0.2,0.2-0.3,0.3-0.4c0.3-0.5,0.5-0.9,0.8-1.4c0.1-0.2,0.1-0.4,0.2-0.6c0.1-0.2,0.1-0.2-0.2-0.2
		c-0.7,0-1.4-0.1-2.1-0.1c-0.3,0-0.7-0.2-0.9,0.2c-0.1,0.2-0.5,0.3-0.7,0.6c-0.3,0.4-0.6,0.8-0.9,1.2c-0.3,0.5-0.6,0.9-1,1.4
		c-0.2,0.3-0.6,0.5-0.6,0.8c0,0.4-0.4,0.6-0.5,1c-0.1,0.3-0.5,0.3-0.7,0.1c-0.1-0.2-0.3-0.3-0.4-0.5c1.1-1.5,2.3-3,3.5-4.6
		c-0.2,0-0.4,0-0.5,0c-0.4,0-0.7,0-1.1,0c-0.7,0-1.3-0.1-2,0c-0.1,0-0.3,0.3-0.4,0.5c-0.5,0.8-0.9,1.7-1.4,2.5
		c0,0.1-0.1,0.1-0.1,0.2c-0.5,0.5-0.8,1.2-1,1.8c-0.1,0.3-0.3,0.6-0.5,0.8c-0.1,0.2-0.4,0.3-0.6,0.3c-0.2,0-0.4-0.2-0.4-0.5
		c0-0.1-0.1-0.1-0.1-0.2c1.3-1.6,2.2-3.6,3.3-5.5c-0.8,0-1.6-0.1-2.3,0c-0.4,0-0.7,0-1.1,0c-0.4-0.1-0.5,0.2-0.7,0.5
		c-0.4,0.7-0.8,1.4-1.3,2.1c-0.4,0.6-0.7,1.3-1.1,1.9c-0.2,0.3-0.3,0.7-0.5,1c-0.1,0.2-0.3,0.5-0.5,0.6c-0.2,0.1-0.4,0-0.6,0.1
		c0-0.2,0-0.3-0.1-0.4c-0.3-0.3,0-0.5,0.2-0.8c0.3-0.4,0.6-0.7,0.8-1.1c0.2-0.3,0.4-0.7,0.6-1.1c0.1-0.1,0.1-0.3,0.2-0.4
		c0.2-0.4,0.5-0.7,0.8-1.1c0.1-0.1,0.1-0.3,0.2-0.4c0.1-0.2,0.2-0.5,0.4-0.8c0,0-0.1-0.1-0.2-0.1c-0.3,0-0.6,0-0.9,0
		c-0.7,0-1.4,0.1-2,0.1c-0.3,0-0.4,0.1-0.4,0.4c0,0.2-0.2,0.4-0.3,0.5c-0.2,0.3-0.4,0.7-0.6,1c-0.3,0.5-0.6,0.9-0.9,1.4
		c-0.2,0.4-0.3,0.8-0.5,1.2c-0.2,0.3-0.5,0.6-0.8,0.8c-0.1,0.1-0.6-0.3-0.7-0.5c0-0.1-0.1-0.2-0.1-0.3c1.2-1.3,2-2.8,2.9-4.4
		c-0.4,0-0.7,0-1,0c-0.7,0-1.3,0-2,0c0,0-0.1,0-0.1,0c-0.3-0.1-0.6,0-0.7,0.3c-0.3,0.5-0.7,1-1,1.5c-0.5,0.8-1.1,1.5-1.5,2.4
		c-0.2,0.6-0.6,1.1-1.2,1.6c-0.3,0.2-0.5,0.1-0.6-0.2c0-0.1-0.2-0.2-0.2-0.2c0-0.2,0-0.4,0.1-0.6c0.2-0.3,0.5-0.6,0.7-1
		c0.3-0.5,0.6-1,1-1.5c0.5-0.7,1-1.4,1.4-2.1c0.1-0.1,0.1-0.2,0.2-0.4c-1-0.1-1.9-0.2-2.9-0.3c-0.7,1-1.4,2-2.2,2.9
		c-0.6,0.7-1,1.4-1.5,2c-0.2,0.3-0.2,0.7-0.6,0.8c-0.2,0.1-0.6,0.1-0.7,0C0.3,45.4,0.2,45,0,44.7c0,0,0.1,0,0.1,0
		c0.2-0.1,0.3-0.3,0.5-0.4c0.8-1,1.7-2,2.5-3.1c0.4-0.5,0.7-1,1.1-1.5c-0.5-0.2-0.9-0.4-1.4-0.4c-0.3,0-0.6,0.1-0.9,0.2
		c-0.2,0-0.4,0-0.6-0.1c-0.1,0-0.1-0.2-0.1-0.3c0-0.1,0-0.3,0-0.4c0-0.1,0-0.2,0.1-0.2c0.2-0.3,0.1-0.5-0.2-0.8
		c0.3-0.1,0.4-0.2,0.3-0.5c0-0.3,0.1-0.6,0.2-0.9c0-0.1,0-0.2,0-0.2c-0.3-0.5,0-1,0.2-1.5c0.1-0.3-0.1-0.6-0.1-0.8
		c0-0.1,0.1-0.3,0.1-0.3c0.5,0,0.2-0.5,0.3-0.7c0-0.1,0-0.2,0.1-0.3c0-0.1,0.1-0.1,0.1-0.2c-0.1-0.4,0.1-0.6,0.3-0.9
		c0,0,0.1-0.1,0.1-0.1c0.5-0.3,1.1-0.6,1.6-1c0.4-0.3,0.7-0.5,1.1-0.6c0.1,0,0.2-0.1,0.3-0.2c0.6-0.3,1.1-0.6,1.7-0.8
		c0.3-0.1,0.7-0.2,1-0.3c0.1,0,0.2-0.2,0.3-0.2c0,0,0.1-0.1,0.1-0.1c0.7-0.3,1.5-0.5,2.2-0.8c0.6-0.2,1.2-0.4,1.7-0.7
		c0.9-0.5,1.9-1.1,2.8-1.7c0.2-0.1,0.3-0.3,0.4-0.5c0.2-0.2,0.4-0.4,0.7-0.6c0.2-0.2,0.2-0.3,0.2-0.6c-0.2-1.1-0.7-2.1-1.2-3.2
		c-0.4-0.8-0.7-1.5-1.1-2.2c-0.5-0.9-1.2-1.7-1.8-2.5c-0.4-0.6-0.9-1.1-1.3-1.6c-0.4-0.6-1-1-1.6-1.6c-1.1-1.1-2.4-1.9-3.8-2.7
		c-0.5-0.3-1-0.4-1.5-0.6c-0.5-0.2-1-0.2-1.5-0.4C2.7,8.4,2.2,8.2,1.8,8C1.7,7.9,1.5,7.7,1.6,7.4c0-0.1,0-0.2,0-0.3
		c0.1-0.3,0.2-0.5,0.2-0.8c0-0.3,0-0.6,0.1-0.9c0.1-0.1,0.1-0.4,0.1-0.6c0-0.2,0-0.3,0.1-0.5C2.2,4,2.3,3.5,2.5,3.1
		c0.1-0.3-0.1-0.7,0.2-0.9c0.1-0.1,0-0.4,0-0.5c0-0.2,0.1-0.4,0.1-0.7c0-0.1,0.1-0.1,0.1-0.2c0-0.5,0.4-0.8,0.9-0.7
		c0.6,0.2,1.1,0.2,1.7,0.1c0.7,0,1.4,0,2.1,0.1c1,0.1,2.1,0.2,3.1,0.2c1.4,0,2.8,0.1,4.2,0.3c0.8,0.1,1.6,0.1,2.4,0.2
		c1,0.1,2,0.1,3,0c0.2,0,0.4,0.1,0.5,0.1c0.4,0,0.8,0,1.2,0.1c0.5,0,1,0.1,1.4,0.1c0.8,0.1,1.7,0,2.5-0.1c0.5-0.1,1.1-0.1,1.6-0.1
		C28,1,28.5,0.9,29,0.9c1,0,2.1,0.1,3.1,0.2c0.5,0.1,0.9,0,1.4,0c1.1,0.1,2.2,0.1,3.3,0.1c0.4,0,0.8,0.1,1.2,0.1
		c1.1,0,2.2,0,3.3,0.1c0.9,0.1,1.8,0.2,2.6,0.3c0.5,0.1,1,0.1,1.5,0.2c1,0.1,1.9,0.1,2.9,0.2c0.8,0.1,1.6,0.2,2.5,0.4
		c0.2,0,0.5,0.2,0.7,0.2c0.3,0,0.5,0,0.8,0c0.7,0.1,1.4,0.1,2.1,0.1c0.3,0,0.6-0.1,0.8-0.1c0.3,0,0.6,0,1,0c0.2,0,0.4,0,0.7,0
		c0.3-0.1,0.6-0.1,0.9,0c0.2,0.1,0.6,0,0.8,0c0.6-0.2,1.3,0,1.9-0.1c0.3,0,0.5-0.1,0.8-0.1c0.6,0.2,1.2,0,1.9-0.1
		c0.4,0,0.8,0.1,1.3,0.1c0.6,0,1.2,0,1.8,0c0.8,0,1.6,0,2.4,0.1c1,0.1,2.1,0,3.1,0.1c0.1,0,0.1,0,0.2,0c0.7,0.3,1.3,0.1,2,0
		c0.8,0,1.6-0.1,2.4-0.1c0.4,0,0.8,0.1,1.2,0.1c0.2,0,0.5,0,0.6,0.1C78.2,3,78.3,3,78.5,3c0.6,0,1.3-0.1,1.9-0.1
		c0.2,0,0.5,0.1,0.7,0.1C81.3,3,81.5,3,81.7,3C82.1,3,82.5,3,82.9,3c0.6,0,1.2-0.1,1.8-0.1c0.5,0,0.9-0.1,1.4-0.1
		c0.4,0,0.8,0,1.2-0.2c0.4-0.1,0.9-0.1,1.3-0.1c0.6,0,1.3-0.1,1.9-0.1c1-0.1,2-0.3,3-0.3c0.7,0.1,1.4,0,2-0.2c0.4-0.1,0.8,0,1.2-0.1
		c0.7-0.1,1.4-0.1,2.1-0.2c0.7-0.1,1.4-0.1,2.2-0.1c0.5,0,0.9-0.1,1.4,0.1c0.1,0,0.3-0.1,0.4-0.1c0.9,0,1.8,0.1,2.7,0.1
		c0.6,0,1.1,0,1.7,0c0.5,0,1.1,0.1,1.5-0.1c0.7-0.2,1.3,0.1,2,0c0.5-0.1,1.1,0,1.6,0c0.4,0,0.9,0,1.3,0c0.9,0,1.8-0.1,2.7-0.1
		c0.4,0,0.9,0,1.3,0c0,0,0.1,0,0.1,0c0.4-0.1,0.8-0.1,1.2,0c0.4,0.1,0.8,0,1.1-0.1c0.3,0,0.6,0,0.9,0c0.4,0,0.8,0,1.1,0
		c0.3,0,0.5,0,0.7,0.2c0.1,0.1,0.2,0,0.3,0.1c0.8,0,1.6,0,2.4,0.1c0.8,0.1,1.5,0.2,2.3,0.3c0.6,0.1,1.2,0.1,1.7,0.2
		c0.2,0,0.4,0.2,0.6,0.2c0.3,0,0.7-0.1,1.1-0.1c0.4,0,0.8-0.1,1.2,0c0.4,0.1,0.9-0.1,1.4-0.1c0.1,0,0.3,0,0.4,0c0.3,0,0.7,0,1,0
		c0.1,0,0.3,0,0.3,0c0.3,0.3,0.6,0.1,0.9,0.1c0.4,0,0.8,0.1,1.1,0c0.8-0.2,1.6,0.2,2.4-0.2c0.1,0,0.1,0,0.2,0c1,0.2,2-0.1,3,0
		c0.7,0,1.5,0.1,2.2,0.1c0.2,0,0.3-0.1,0.5-0.1c0.3,0,0.5,0.1,0.8,0.1c0.2,0,0.4,0,0.7,0c0.4,0,0.8,0,1.2,0c0.7,0,1.3-0.2,2-0.2
		c0.5,0,0.9,0,1.4,0c0.3,0,0.6,0,0.9,0c0.2,0,0.3,0,0.5,0.1c0.1,0,0.2,0,0.2,0c0.6,0,1.2,0,1.8-0.1c0.2,0,0.5-0.1,0.7-0.1
		c0.5-0.1,1-0.2,1.6,0c0,0,0.1,0,0.1,0c0.7-0.1,1.4-0.1,2-0.2c0,0,0.1,0,0.1,0c0.3,0.1,0.5,0.2,0.8,0.3c0.2,0,0.3-0.1,0.5-0.1
		c0.4,0,0.7-0.1,1.1-0.1c0.7,0,1.4-0.1,2,0.1c0.7,0.2,1.2-0.2,1.8,0c0.4,0.1,0.9,0.1,1.4,0c0.4-0.1,0.9,0,1.4,0
		c0.2,0,0.4-0.1,0.6-0.1c1.1,0,2.1-0.1,3.2-0.1c0.9,0,1.8,0,2.6,0c0.3,0,0.6,0.1,1,0.1c0.2,0,0.3,0,0.5,0c0.1,0.3,0.2,0.5,0.3,0.8
		c0,0-0.1,0.1-0.1,0.1c0,0.2-0.1,0.5-0.1,0.7c-0.1,0.4,0,0.9-0.1,1.3c-0.2,0.5-0.2,1-0.2,1.5c0,0,0,0.1,0,0.1c0.2,0.4,0.1,0.9,0,1.3
		c-0.1,0.5-0.1,0.9,0.1,1.3c0.1,0.2,0.1,0.3,0.1,0.5c0,0-0.1,0.1-0.1,0.2c-0.4,0.2-0.9,0.3-1.3,0.5c-0.3,0.1-0.6,0.2-0.8,0.4
		c-0.2,0.1-0.4,0.1-0.5,0.2c-0.4,0.3-1,0.5-1.3,1c-0.1,0.2-0.5,0.4-0.8,0.5c-0.6,0.2-1,0.6-1.4,0.9c-0.5,0.5-1.1,0.8-1.7,1.3
		c-0.3,0.3-0.6,0.5-0.9,0.8c-0.2,0.1-0.4,0.3-0.5,0.4c-0.3,0.2-0.5,0.5-0.8,0.7c-0.5,0.6-1,1.1-1.5,1.8c-0.4,0.5-0.7,1-0.9,1.6
		c-0.2,0.5-0.3,1-0.5,1.5c-0.1,0.5-0.2,1-0.4,1.5c-0.3,0.5-0.3,1-0.4,1.5c-0.1,0.4,0,0.8,0,1.3c0,0.1,0.1,0.1,0.1,0.2
		c0.4,0.3,0.8,0.5,1.2,0.8c0.4,0.3,0.8,0.6,1.1,0.8c0.7,0.5,1.4,1,2.1,1.4c1.1,0.7,2.2,1.3,3.3,2c0.3,0.2,0.6,0.4,0.9,0.6
		c0.2,0.1,0.5,0.2,0.7,0.3c0.4,0.2,0.8,0.4,1.3,0.6c0,0.6,0.4,0.9,1,0.8c0.3,0,0.6,0,0.9,0.1c0.1,0,0.1,0.3,0.1,0.5
		c0,0.5-0.1,1-0.1,1.4c0,0.1,0.1,0.2,0.1,0.3c0,0.2,0,0.4-0.1,0.6c-0.1,0.2-0.2,0.3-0.3,0.5c-0.2,0.4,0,0.7,0,1.1
		c0,0.1,0.2,0.3,0.2,0.4c0,0.2-0.1,0.5,0,0.6c0.2,0.3,0.1,0.6,0.1,0.8c-0.1,0.5,0,1-0.3,1.5c0,0.1-0.1,0.1-0.1,0.2
		c-0.4,0.4-0.8,0.8-1.1,1.2c-0.3,0.3-0.6,0.7-0.9,1c-0.2,0.2-0.4,0.5-0.6,0.8c-0.1,0.1-0.1,0.4-0.4,0.3c0,0-0.1,0.1-0.1,0.1
		c-0.2,0.6-0.7,1.1-1,1.6c-0.1,0.2-0.8,0.3-0.9,0.2c-0.3-0.3-0.4-0.7-0.1-1.1c0.3-0.4,0.7-0.7,1-1c0.3-0.3,0.6-0.5,0.8-0.8
		c0.3-0.4,0.6-0.8,0.9-1.3c0.1-0.2,0.2-0.4,0.4-0.6c0.3-0.3,0.1-0.3-0.1-0.4c-0.4-0.1-0.8-0.1-1.2-0.1c-0.6-0.1-0.9,0.3-1.3,0.7
		c-0.2,0.3-0.6,0.4-0.9,0.6c-0.2,0.2-0.3,0.4-0.5,0.5c-0.4,0.4-0.8,0.9-1.2,1.3c-0.3,0.3-0.5,0.6-0.8,0.9c0.2,0.3,0.1,0.6-0.2,0.8
		c-0.4,0.3-0.7,0.7-1.2,0.8c-0.2,0.1-0.4,0.1-0.6-0.1c-0.1-0.2-0.1-0.4,0.2-0.6c0.3-0.2,0.5-0.6,0.8-0.9c0.5-0.4,0.9-0.8,1.3-1.3
		c0.3-0.4,0.6-0.9,1-1.3c0.2-0.3,0.5-0.7,0.7-1c0.2-0.2,0.4-0.4,0.6-0.7c-0.5,0-0.9,0-1.3,0c-0.4,0-0.7,0-1.1-0.1
		c-0.5-0.1-0.9,0.1-1.2,0.6c0,0,0,0.1-0.1,0.1c-0.4,0.1-0.5,0.5-0.7,0.8c-0.2,0.3-0.5,0.6-0.7,0.8c-0.3,0.3-0.6,0.6-0.8,0.9
		c-0.2,0.3-0.4,0.7-0.6,1c-0.1,0.1-0.4,0.2-0.6,0.3c-0.1,0-0.2,0-0.3,0c-0.1-0.2-0.3-0.3-0.3-0.5c0-0.1,0-0.4,0.1-0.5
		c0.4-0.5,0.9-1,1.3-1.5c0.5-0.5,0.9-1,1.4-1.5c0.1-0.1,0.2-0.2,0.3-0.4c-0.2,0-0.4-0.1-0.6-0.1c-0.6,0-1.1-0.1-1.7-0.1
		c-0.8,0-1.4,0.2-1.9,1c-0.2,0.4-0.7,0.7-1,1.1c-0.1,0.1-0.1,0.3-0.2,0.4c-0.3,0.4-0.7,0.6-0.9,1.1c-0.2,0.4-0.7,0.6-0.5,1.2
		c0,0.1-0.2,0.4-0.4,0.5c-0.3,0.2-0.6,0.3-1,0.2c0-0.1,0-0.2,0.1-0.2c-0.1-0.1-0.2-0.1-0.4-0.2c0.1-0.2,0.2-0.4,0.4-0.6
		c0.5-0.5,1.1-1,1.6-1.6c0.4-0.5,0.9-0.9,1.1-1.6c0.1-0.3,0.4-0.6,0.6-0.9c0.1-0.1,0.2-0.2,0.3-0.5c-0.5,0-0.9,0-1.3,0
		c-0.2,0-0.3-0.1-0.5-0.1c-0.5,0-1,0.1-1.6,0.1c-0.2,0-0.3,0.1-0.4,0.3c-0.8,1-1.6,1.9-2.4,2.9c-0.2,0.2-0.4,0.4-0.6,0.6
		c-0.2,0.2-0.3,0.4-0.2,0.7c0,0.1,0,0.2,0,0.3c-0.3,0.1-0.5,0.3-0.8,0.4c-0.3,0.2-0.5,0-0.6-0.2c-0.1-0.1,0-0.4,0.1-0.6
		c0.2-0.3,0.3-0.6,0.5-0.8c0.1-0.1,0.1-0.3,0.3-0.2c0,0,0.1,0,0.2-0.1c0.2-0.3,0.5-0.6,0.7-0.9c0.2-0.2,0.4-0.4,0.6-0.6
		c0.2-0.3,0.4-0.6,0.5-0.9c0.2-0.3,0.4-0.6,0.6-0.9c-0.2,0-0.4-0.1-0.6-0.1c-0.9,0-1.8,0-2.7-0.1c-0.4,0-0.6,0.4-1,0.5
		c-0.1,0-0.2,0.2-0.3,0.4c-0.5,0.7-1,1.4-1.6,2.1c-0.1,0.1-0.3,0.2-0.5,0.3c-0.2,0.2-0.3,0.4-0.4,0.6c-0.1,0.2-0.3,0.4-0.5,0.6
		c0,0.1,0,0.3,0,0.5c-0.2,0.2-0.6,0.4-0.9,0.7c-0.2,0.2-0.3,0.1-0.5,0c-0.4-0.2-0.4-0.8-0.1-1.1c0.1-0.1,0.2-0.2,0.3-0.3
		c0.4-0.4,0.7-0.9,1.1-1.3c0.1-0.1,0.4,0,0.4-0.2c0.2-0.3,0.4-0.6,0.6-0.9c0.2-0.3,0.4-0.5,0.6-0.8c0.2-0.3,0.4-0.5,0.5-0.8
		c0-0.1,0-0.2-0.1-0.4c-0.6,0-1.2,0.1-1.8,0.1c-0.2,0-0.5-0.1-0.7-0.1c-0.4,0-0.7,0.1-0.9,0.5c-0.2,0.4-0.5,0.6-0.8,0.9
		c-0.4,0.5-0.8,0.9-1.2,1.4c-0.4,0.5-0.9,1-1.3,1.5c-0.1,0.1-0.1,0.3-0.1,0.5c0,0.1-0.1,0.2-0.1,0.3c0,0-0.1,0-0.2,0.1
		c-0.3,0.2-0.5,0.1-0.7-0.1c-0.2-0.2-0.2-0.7,0-0.9c0.6-0.7,1.3-1.5,1.9-2.2c0.3-0.3,0.6-0.6,0.9-0.9c0.2-0.3,0.4-0.6,0.6-1
		c-0.4,0-0.8,0-1.2,0c-0.6,0-1.2,0.1-1.8,0.2c-0.3,0.1-0.6,0.2-0.8,0.4c-0.5,0.5-1,1.1-1.6,1.7c-0.1,0.2-0.2,0.4-0.4,0.5
		c-0.1,0.1-0.1,0.4-0.4,0.3c0,0-0.1,0.1-0.2,0.2c-0.2,0.3-0.3,0.6-0.5,0.9c-0.1,0.1-0.2,0.2-0.3,0.3c-0.4,0.2-0.4,0.6-0.5,1
		c-0.1,0.3-0.7,0.7-1,0.6c-0.1,0-0.3-0.2-0.3-0.3c-0.1-0.2-0.1-0.4-0.1-0.6c0.1-0.2,0.3-0.4,0.4-0.5c0.2-0.2,0.5-0.4,0.8-0.6
		c0,0,0.1-0.1,0.1-0.1c0-0.5,0.4-0.9,0.7-1.2c0.6-0.7,1.2-1.2,1.8-1.8c0.2-0.2,0.3-0.3,0.5-0.6c-0.5,0-0.8,0.1-1.2,0.1
		c-0.8,0-1.6,0.1-2.3,0.1c-0.3,0-0.6,0-0.9,0.1c-0.3,0-0.6,0.2-0.8,0.5c-0.3,0.5-0.8,0.9-1.1,1.4c-0.2,0.3-0.6,0.5-0.6,1
		c0,0.1,0,0.1-0.1,0.2c-0.5,0.1-0.4,0.7-0.8,0.9c-0.1,0-0.1,0.1-0.1,0.2c0,0.4-0.7,1.2-1.1,1.3c-0.2,0-0.3,0-0.4-0.2
		C131.1,46.2,131,46,130.9,45.9z M164.9,9.9c-0.1,0-0.2,0-0.3,0c-0.5,0-1,0-1.4,0c-0.7,0-1.4,0-2,0c-0.2,0-0.5,0-0.7-0.1
		c-0.3,0-0.7-0.1-1-0.1c-0.8,0-1.5,0.1-2.3,0.1c-0.9,0-1.8,0-2.7,0.1c-0.2,0-0.3,0-0.5,0c-0.5,0-0.9,0.1-1.4,0.1
		c-0.8,0-1.6,0-2.4,0.1c-0.6,0-1.2,0-1.8,0c-0.4,0-0.9,0-1.3,0c-0.6,0-1.2,0.1-1.8,0.1c-0.8,0-1.7,0-2.5,0c-1,0-1.9,0-2.9,0
		c-0.7,0-1.4-0.1-2.2-0.1c-0.8,0-1.6,0.1-2.4,0.1c-1.6,0-3.1,0-4.7-0.1c-0.4,0-0.9,0.1-1.3,0.1c-1,0-1.9-0.1-2.9-0.2
		c-0.7-0.1-1.3-0.1-2-0.2c-0.8-0.1-1.6-0.1-2.4-0.2c-0.6,0-1.1,0-1.7,0c-1.6-0.1-3.1-0.2-4.7-0.2c-1,0-2.1,0.1-3.1,0.1
		c-0.2,0-0.5,0-0.7,0c-0.5,0-1.1,0-1.6,0c-0.4,0-0.8-0.1-1.2,0c-0.9,0-1.8,0.1-2.7,0.1c-0.5,0-1,0-1.5,0c-0.9,0-1.7,0-2.6,0
		c-0.5,0-1.1-0.1-1.6-0.1c-0.6,0-1.2,0-1.7,0.1c-0.7,0.1-1.4,0.1-2,0.2c-0.4,0-0.8,0.1-1.2,0.2c-0.6,0.1-1.3,0.1-1.9,0.1
		c-0.7,0.1-1.4,0.1-2.1,0.2c-0.9,0.1-1.8,0.1-2.7,0.2c-0.8,0.1-1.5,0.2-2.3,0.3c-0.7,0.1-1.5,0.1-2.2,0.1c-0.3,0-0.6,0-0.9,0
		C82.8,10.9,82,11,81.3,11c-1,0-1.9,0-2.9,0c-0.3,0-0.6,0-0.8,0c-0.8,0-1.6-0.1-2.3-0.1c-0.4,0-0.8-0.2-1.3,0.1c0,0-0.1,0-0.1,0
		c-0.2,0-0.3-0.1-0.5-0.1c-0.4,0-0.9,0.1-1.3,0.1c-1,0-2.1,0-3.1-0.1c-0.6,0-1.1,0-1.7,0c-0.7,0-1.5-0.1-2.2-0.1c-0.3,0-0.7,0.1-1,0
		c-0.8-0.1-1.7-0.1-2.5-0.1c-0.7,0-1.4,0-2.1,0c-0.5,0-0.9,0-1.4,0c-0.7,0-1.4,0.1-2.1,0.1c-0.4,0-0.7,0-1.1,0
		c-0.6,0-1.3,0.1-1.9,0.1c-0.8,0-1.7-0.1-2.5-0.2c-0.3,0-0.6,0-0.8-0.1c-0.5-0.2-1.1-0.2-1.6-0.3c-0.6,0-1.1,0-1.7,0
		c-0.8-0.1-1.6-0.2-2.4-0.3c-0.5-0.1-1.1-0.1-1.6-0.2c-0.5-0.1-1-0.1-1.5-0.1c-0.6,0-1.2,0-1.9,0c-0.7,0-1.5-0.1-2.2-0.2
		c-1.5-0.1-2.9-0.1-4.4-0.2c-0.5,0-1-0.1-1.4-0.1c-0.4,0-0.9-0.1-1.3-0.1c-0.7,0-1.3,0-2,0c-0.9,0.1-1.8,0.2-2.6,0.2
		c-0.8,0.1-1.6,0.1-2.3,0.1c-0.6,0-1.1-0.2-1.7-0.2c-0.9-0.1-1.8-0.1-2.7-0.1c-0.1,0-0.2,0-0.4,0c-0.6,0-1.1,0-1.8,0
		c0.3,0.5,0.6,1,0.9,1.4c0.4,0.6,0.7,1.3,1,2c0.1,0.3,0.3,0.5,0.4,0.8c0.2,0.5,0.4,1,0.5,1.5c0.2,0.7,0.4,1.5,0.6,2.3
		c0.1,0.2,0.2,0.4,0.2,0.7c0,0.5,0,1,0,1.5c0,0.2-0.1,0.4-0.1,0.6c0.1,0.6,0,1.2-0.1,1.8c-0.1,0.4-0.1,0.9-0.2,1.3
		c-0.2,1-0.4,1.9-0.6,2.9c-0.1,0.5-0.2,1-0.3,1.4c-0.1,0.4-0.3,0.7-0.5,1.1c-0.1,0.1-0.2,0.3-0.2,0.4c-0.1,0.2-0.1,0.5-0.2,0.7
		c-0.3,0.5-0.7,0.9-1.1,1.4c-0.4,0.4-0.8,0.9-1.2,1.3c0,0,0,0.1,0.1,0.1c0.2,0,0.5,0.2,0.7,0.1c0.4-0.1,0.9,0,1.3-0.2
		c0.6-0.2,1.3-0.1,2,0c0.4,0,0.8,0.1,1.2,0.1c0.2,0,0.5,0.1,0.7,0.1c0.9-0.2,1.8-0.1,2.7-0.1c0.5,0,1,0.1,1.5,0.1
		c0.5,0,0.9-0.1,1.3-0.1c0.3,0,0.5,0,0.8,0c0.2,0,0.4,0,0.5,0c0.4,0,0.9,0,1.3,0.1c0.6,0,1.2,0,1.8,0.1c0.2,0,0.3,0.1,0.5,0.1
		c0.6,0,1.1,0,1.7,0.1c0.4,0.1,0.8-0.2,1.1,0.2c0,0,0.1,0,0.2-0.1c0.1,0,0.2-0.1,0.3-0.1c0.5,0,1.1,0,1.6,0.1c0.1,0,0.3,0,0.4,0
		c0.3,0,0.7-0.1,1-0.1c0.3,0,0.6,0,1,0c0.3,0,0.6,0.1,0.9,0c0.1,0,0.1,0,0.2,0c0.3,0.2,0.6,0.1,0.8,0c0,0,0.1,0,0.1,0
		c0.5,0,1,0.1,1.5,0.1c0.9,0,1.8-0.1,2.7,0c0.5,0,1,0,1.5-0.1c0.5-0.1,1.1-0.1,1.6-0.1c0.8,0,1.5,0,2.3,0.1c0.6,0,1.3,0,1.9,0
		c0.9,0.1,1.7-0.1,2.6,0c0.4,0,0.9,0,1.4,0c0.1,0,0.2,0,0.3,0c0.2,0,0.4-0.1,0.6-0.1c0.8,0,1.6,0,2.4,0c0.3,0,0.5-0.1,0.7,0.2
		c0,0,0.1,0,0.2,0c0.4,0,0.8-0.1,1.2-0.1c0.3,0,0.7-0.1,0.8,0c0.3,0.3,0.5,0,0.8,0.1c0.2,0,0.5,0.1,0.7,0.1c0.1,0,0.2,0,0.2,0
		c0.3,0,0.5-0.1,0.8-0.1c0.4,0,0.8,0.1,1.2,0.1c0.6,0,1.2-0.1,1.8-0.1c0.4,0,0.8,0.1,1.1,0.1c0.6,0,1.1,0,1.7-0.1
		c0.4,0,0.7,0,1.1-0.1c0.1,0,0.3,0,0.4,0c0.4,0,0.8-0.2,1.2-0.1c0.5,0.1,1,0.1,1.5,0c0.3,0,0.5,0,0.8,0c0.1,0,0.3,0,0.4,0
		c0.7,0,1.4,0,2-0.1c0.2,0,0.5,0,0.7,0c0.1,0,0.2,0,0.3,0c0.3,0,0.7,0.1,1,0.1c0.9,0,1.8-0.2,2.7-0.2c1.1,0,2.3,0,3.4,0
		c0.2,0,0.3,0,0.4,0c0.3,0,0.6,0,0.9,0c0.2,0,0.3-0.1,0.5,0c0.3,0.2,0.7,0.2,1,0.2c0.6,0,1.1,0,1.7,0.1c0.3,0,0.5,0.1,0.8,0.1
		c0.7,0,1.4-0.2,2.1-0.2c0.7,0,1.4,0,2.2,0.1c0,0,0,0,0.1,0c0.7,0.1,1.4,0.2,2.1,0.2c0.3,0,0.6-0.1,0.9-0.1c0.4,0,0.8,0,1.2,0
		c1.2,0,2.5,0,3.7,0c0.5,0,1.1,0,1.6,0c0.8,0,1.5,0.1,2.3,0.1c0.3,0,0.5,0,0.8,0c0.2,0,0.4,0,0.6,0.1c0.2,0,0.4,0,0.6,0
		c0.5,0,0.9-0.2,1.4-0.2c0.5,0.1,0.9,0,1.4,0c0.5,0,1,0,1.4,0c0.7,0,1.4-0.1,2.2,0c0.6,0,1.2,0.2,1.8,0.1c0.4,0,0.7,0.1,1.1,0.1
		c0.6,0,1.2,0,1.7,0c0.8,0,1.6,0.1,2.4,0.1c0.4,0,0.8,0,1.3,0c1.1,0,2.2,0.1,3.3,0.1c0.2,0,0.4,0.1,0.6,0.1c0.5,0,1-0.1,1.5-0.1
		c0.7,0,1.3,0,2,0c0.9,0,1.8,0,2.7,0c0.5,0,1.1-0.1,1.6-0.1c0.8,0,1.5,0,2.3,0c0.2,0,0.4-0.1,0.6-0.1c0.7-0.1,1.4-0.1,2.1-0.2
		c0.5,0,1-0.1,1.5-0.1c0.1,0,0.3,0,0.4,0c0.6,0,1.1-0.1,1.7-0.1c0.7,0,1.4,0,2.1-0.1c0.8,0,1.7-0.1,2.5-0.1c0.9,0,1.7,0,2.6,0
		c1.4,0,2.7,0,4.1,0c0.9,0,1.9,0,2.8,0c0.6,0,1.1,0,1.7,0c0.5,0,0.9,0,1.4,0c0-0.1-0.1-0.2-0.1-0.2c-0.2-0.4-0.5-0.8-0.7-1.2
		c-0.2-0.4-0.3-0.8-0.4-1.2c0-0.2-0.1-0.3-0.1-0.5c0-0.2,0-0.4,0-0.6c0-0.3-0.1-0.7-0.1-1c-0.1-0.4-0.2-0.7-0.2-1.1
		c0-0.3,0-0.6-0.1-0.8c0-0.1,0-0.2,0-0.3c0-0.3-0.3-0.7,0-1c0,0,0-0.2,0-0.3c-0.1-0.4-0.2-0.7-0.2-1.1c0-0.6,0-1.1,0.1-1.7
		c0-0.5,0-1,0.1-1.6c0-0.5,0.1-1,0.2-1.6c0.1-0.4,0.2-0.9,0.2-1.3c0-0.7,0.6-1.2,0.5-1.9c0-0.3,0.3-0.7,0.4-1.1
		c0.1-0.3,0.3-0.6,0.4-1c0.1-0.6,0.4-1.1,0.8-1.5c0.6-0.6,1.3-1.2,1.9-1.8C164.8,10.1,164.8,10,164.9,9.9z"/>
	<path class="st0" d="M160.1,11.3c0.2,0.1,0.4,0.1,0.5,0.1c0.2,0.1,0.5,0.1,0.7,0.3c0.1,0.1,0,0.5-0.1,0.6c-0.6,0.9-1.1,1.8-1.5,2.8
		c-0.2,0.5-0.3,1-0.4,1.4c-0.2,0.4-0.4,0.9-0.6,1.3c-0.2,0.6-0.4,1.1-0.4,1.8c0,0.3-0.1,0.5-0.1,0.8c0,0.3,0,0.6,0,0.9
		c0,0.6-0.1,1.2-0.1,1.8c0,0.7,0,1.5,0.1,2.2c0,0.2-0.1,0.3,0,0.5c0.1,0.6,0.2,1.2,0.2,1.8c0,0.2,0,0.4,0.1,0.6
		c0.3,0.6,0.6,1.1,0.9,1.7c0,0.1,0.2,0.1,0.3,0.2c0.3,0.1,0.3,0.5,0.1,0.7c-0.1,0.1-0.2,0.3-0.3,0.5c-0.1,0.1-0.2,0.3-0.4,0.3
		c-0.5-0.1-1.1-0.2-1.6-0.3c0,0-0.1,0-0.1,0c-0.5,0-0.9,0-1.4-0.1c-0.5,0-0.9,0.1-1.4,0.2c-0.7,0.1-1.4,0.2-2.1,0.2
		c-0.3,0-0.6,0-1,0c-0.2,0-0.4,0.1-0.6,0.1c-0.6,0-1.3,0.1-1.9,0.1c-0.4,0-0.8-0.1-1.1-0.2c-0.2,0-0.5,0-0.7,0c-0.5,0-0.9,0-1.4,0
		c-0.6,0-1.2-0.1-1.8-0.1c-0.3,0-0.6,0-0.9-0.1c-0.7-0.1-1.5-0.2-2.2-0.3c-0.6-0.1-1.1,0-1.7-0.1c-0.9-0.1-1.8-0.1-2.7-0.2
		c-0.5,0-0.9-0.1-1.4-0.1c-0.1,0-0.2,0-0.3,0.1c-0.1,0-0.3,0.1-0.4,0.1c-0.4,0-0.9,0-1.3,0c-0.6,0-1.3-0.1-1.9-0.1
		c-0.4,0-0.8,0.1-1.2,0.1c-0.7,0-1.5,0-2.2,0.1c-0.1,0-0.2,0.1-0.3,0.1c-0.7,0-1.4,0-2.1,0c-0.4,0-0.8,0-1.2,0
		c-0.1,0-0.3-0.1-0.4-0.1c-0.3,0.2-0.7,0.2-1.2,0.2c-0.2,0-0.4,0-0.5,0c-0.5,0-1,0.1-1.5,0.1c-0.4,0-0.8,0-1.1,0c-0.3,0-0.7,0-1,0
		c-0.5,0-1,0.1-1.5,0.1c-0.6,0-1.2,0.1-1.7-0.1c-0.6-0.2-1.2,0-1.9-0.1c-0.7,0-1.4,0.1-2.1-0.1c-0.3-0.1-0.7,0-1,0.1
		c-0.7,0-1.4,0.1-2.1,0.1c-0.6,0-1.3,0-1.9,0c-0.6,0-1.3,0.2-1.9,0.2c-1.1,0-2.2,0-3.3-0.1c-0.6,0-1.1,0-1.7,0c-0.4,0-0.9,0-1.2-0.2
		c-0.4-0.2-0.8,0.1-1.2,0c-0.3-0.1-0.6,0-0.9,0c-1,0-1.9,0-2.9,0c-0.7,0-1.4-0.1-2.2-0.1c-0.5,0-0.9,0-1.4,0c-0.4-0.1-0.7,0.1-1,0.1
		c-0.6,0-1.2,0-1.7-0.1c-0.6-0.1-1.3-0.2-1.9-0.2c-0.3,0-0.6-0.1-1-0.2c-0.2,0-0.4,0.1-0.6,0c-0.4-0.2-0.9,0-1.3-0.2
		c-0.3-0.1-0.8-0.1-1.1-0.1c-0.2,0.1-0.3,0-0.5-0.1c-0.4-0.1-0.7,0-1.1,0c-0.2,0-0.4,0-0.7,0c0,0-0.1,0.3-0.3,0
		c-0.1-0.1-0.4,0-0.6,0c-0.5,0-1,0.2-1.5,0.1c-0.6-0.1-1.3,0-1.9,0c-0.1,0-0.2-0.1-0.3-0.1c-0.1,0-0.1,0-0.2,0c-0.3,0-0.7,0.1-1,0.2
		c-0.3,0-0.5-0.1-0.8-0.1c-0.2,0-0.4,0-0.6,0.1c0,0,0-0.1-0.1-0.1c0,0,0,0.1,0,0.1c-0.2,0-0.4,0-0.6,0c-0.1,0.2-0.3,0.3-0.6,0.1
		c-0.1-0.1-0.3,0-0.5,0.1c-0.3,0.2-0.5,0.2-0.8,0.1c-0.4-0.1-0.7,0-1.1-0.1c-0.5,0-1-0.1-1.5-0.1c-0.3,0-0.6,0.1-0.9,0.1
		c-0.3,0-0.7,0-1,0c-0.2,0-0.4,0-0.6,0c-0.4,0-0.8,0.1-1.2,0.1c-0.3,0-0.6,0-0.9,0c-0.2,0-0.3-0.1-0.5-0.1c-0.1,0-0.2,0.1-0.3,0.2
		c-0.6-0.3-1.3-0.1-2-0.1c-0.2,0-0.5-0.1-0.7-0.1c-0.7,0-1.4,0.1-2.1,0.2c-0.4,0-0.8,0-1.3-0.1c-0.2,0-0.3,0-0.5,0
		c-0.3,0.1-0.6,0.1-0.8,0.1c-0.2,0-0.5,0-0.7,0c-0.3,0-0.7-0.1-1,0c-0.4,0.1-0.7-0.2-1.1,0c-0.2,0.1-0.6,0-0.9-0.1
		c-0.2,0-0.4,0-0.7-0.1c0,0,0-0.1-0.1-0.2c-0.1,0-0.2,0.1-0.3,0.1c-0.7,0-1.4-0.1-2.2-0.1c0,0-0.1,0-0.1,0c-0.6,0-1.3,0.2-1.9,0.1
		c-0.7-0.1-1.3,0.2-2,0c-0.3-0.1-0.8,0.1-1.2,0.2c-0.1,0-0.2,0-0.2,0c-0.4,0-0.8-0.2-1.1-0.1c-0.3,0.1-0.7,0.1-1,0.1
		c-0.5,0.1-1,0-1.6,0c-0.1,0-0.2,0-0.3,0c-0.7,0-1.5,0-2.2,0.1c-0.2,0-0.4,0.1-0.7,0.1c-0.1,0-0.3-0.1-0.4-0.1
		c-0.1,0-0.2-0.1-0.3-0.1c-0.4,0-0.8,0-1.2,0c-0.3,0-0.6,0-0.8-0.1c-0.4,0-0.7-0.1-1.1-0.1c-0.4,0-0.8,0.1-1.2,0.1
		c-0.2,0-0.4-0.1-0.6-0.1c-0.5,0-1,0-1.5,0.1c-0.7,0-1.3,0.1-2,0.1c-0.8,0-1.5-0.2-2.3-0.2c-0.8,0-1.5,0-2.3,0
		c-0.3,0-0.5,0.2-0.8,0.3c-0.3,0.1-0.7-0.1-0.8-0.4c-0.1-0.2-0.1-0.4-0.2-0.6c0.1-0.2,0.2-0.3,0.3-0.5c0.1-0.1,0.3-0.3,0.4-0.4
		c0.5-0.3,0.7-0.9,0.9-1.3c0.3-0.7,0.6-1.3,0.9-2c0.1-0.4,0.2-0.8,0.3-1.2c0.1-0.3,0.2-0.6,0.3-0.9c0.1-0.4,0.3-0.7,0.4-1.1
		c0,0,0-0.1,0-0.1c0-0.7,0.1-1.4,0.1-2.1c0-0.8-0.1-1.6-0.1-2.4c0.1-0.9-0.2-1.7-0.3-2.6c-0.1-0.8-0.4-1.4-1-1.9
		c-0.4-0.4-0.9-0.8-1.3-1.3c-0.2-0.3-0.3-0.6-0.5-0.9c-0.1-0.1-0.1-0.3-0.2-0.4c0.4-0.4,1.1-0.4,1.6-0.1c0.2,0.1,0.5,0.2,0.7,0.2
		c0.4-0.1,0.8,0,1.3,0.1c0.1,0,0.3,0,0.5,0c0.5,0,1,0.1,1.5,0.2c0.6,0,1.2,0,1.7-0.1c0,0,0.1,0,0.1,0c0.2,0,0.5,0.1,0.7,0.1
		c0.5-0.1,1-0.1,1.5,0.1c0.3,0.1,0.6,0,0.8,0c0.5,0,0.9,0,1.4,0.1c0.8,0,1.5,0.1,2.3,0.1c0.7,0,1.4-0.1,2.1-0.1c0.6,0,1.2,0,1.8,0
		c0.4,0,0.8,0,1.2-0.1c0.5-0.1,1-0.1,1.6,0c0.6,0.1,1.2,0,1.9-0.1c0.5,0,1,0,1.4-0.1c0.9,0,1.9-0.1,2.8-0.1c1,0,1.9-0.1,2.9-0.1
		c0.8,0,1.7,0,2.5,0c0.7,0,1.5,0,2.2,0c1.2,0,2.5,0,3.7,0c1.3,0,2.5,0.1,3.8,0.2c0.6,0,1.2,0,1.7,0.1c0.8,0.2,1.6,0,2.5,0
		c0.4,0,0.9,0.2,1.3,0.2c0.3,0,0.7,0,1,0c0.6,0,1.1,0.1,1.7,0.1c0.6,0,1.2-0.1,1.8-0.1c0.5,0,0.9,0.1,1.4,0.1c0.3,0,0.6,0,0.9,0
		c0.7,0,1.4-0.1,2.1-0.1c0.6,0,1.3,0,1.9,0c0.7,0,1.3-0.1,2-0.1c0.7-0.1,1.4-0.2,2.1-0.3c0.4,0,0.9,0,1.3-0.1c0.3,0,0.7,0,1-0.1
		c0.8-0.3,1.6-0.1,2.4-0.2c0.2,0,0.4-0.1,0.5-0.1c0.4,0,0.8,0,1.2,0c0.4,0,0.9,0,1.3,0c0.2,0,0.3-0.1,0.5,0c0.5,0.2,1,0,1.5,0
		c0.6,0,1.2,0,1.8-0.1c0.5-0.1,1.1,0,1.6,0c0.3,0,0.6,0,0.9-0.1c0.2,0,0.5,0,0.7,0c0.6,0,1.3-0.1,1.9,0c1.1,0.2,2.2,0,3.3,0
		c0.6,0,1.3-0.2,1.9-0.1c0.6,0,1.2-0.1,1.8-0.1c0.6,0,1.2,0.1,1.8,0.3c0.2,0.1,0.5,0.1,0.8,0.2c0.1,0,0.3,0,0.4-0.1
		c0.2,0,0.4-0.1,0.6-0.1c0.6,0,1.2-0.1,1.8-0.1c0.3,0,0.6,0.1,0.9,0.1c0.3,0,0.6,0,0.8,0c0.5,0,1.1,0,1.6,0.1
		c0.6,0.1,1.2,0.1,1.8,0.1c0.1,0,0.3,0,0.4,0c0.7,0,1.3,0,2,0c0.4,0,0.8,0.1,1.2,0.1c0.5,0,1.1,0.1,1.6,0.2c0.6,0.1,1.3,0.2,1.9,0.3
		c0.3,0,0.5,0,0.8,0c0.4,0,0.7,0.1,1.1,0.1c0.6,0,1.2,0,1.7,0c0.4,0,0.8-0.1,1.2,0c0.5,0.1,1,0,1.5,0c0.6,0,1.2,0,1.8,0.1
		c0.7,0,1.3,0,2,0.1c0.5,0,1,0.1,1.5,0.1c0.5,0,1-0.1,1.4-0.1c1.2-0.1,2.4-0.2,3.6-0.2c0.9,0,1.7,0.2,2.6,0.3c0.5,0,1,0.1,1.5,0
		c0.5-0.1,1.1,0,1.7,0c1.6,0,3.1,0.2,4.7,0.1c1.2-0.1,2.5-0.3,3.7-0.3c0.3,0,0.7,0,1-0.1c0.7-0.1,1.4-0.2,2.2-0.2
		c0.9-0.1,1.7-0.1,2.6-0.2C159.9,11.5,160,11.3,160.1,11.3z M22.2,12.3c0.1,0.1,0.1,0.2,0.1,0.2c0.5,0.5,0.9,1.1,1.2,1.8
		c0.1,0.2,0.2,0.4,0.2,0.5c0.1,0.4,0.1,0.8,0.2,1.3c0,0.4,0.1,0.7,0.1,1.1c0,0.4,0.1,0.9,0.1,1.3c0,0.4,0,0.9,0,1.3
		c0,0.4,0,0.9,0,1.3c0,0.5-0.1,0.9-0.2,1.3c-0.2,1-0.5,2-0.7,3C23,25.6,23,25.8,22.9,26c-0.2,0.4-0.5,0.9-0.6,1.3
		c-0.2,0.5-0.4,1-0.7,1.5c-0.1,0.2-0.1,0.4,0.2,0.4c0.3,0,0.6,0,0.9,0c0.3,0,0.6,0.1,0.8,0.1c0.7,0.1,1.4,0.1,2,0.3
		c0.1,0,0.1,0,0.2,0c0.7-0.2,1.4-0.2,2.1,0c0.5,0.1,1.1,0,1.6,0c0.3,0,0.7,0,1,0c0.8,0.1,1.7,0.1,2.5,0c0.4,0,0.8,0,1.2,0
		c0.5,0,1,0,1.4,0c0.4,0,0.7,0,1.1,0.1c0.3,0,0.5,0.2,0.8,0.1c0.6-0.2,1.1,0,1.6-0.1c0.3,0,0.6,0,0.9,0c0.2,0,0.4,0,0.6,0
		c0.4,0,0.7-0.1,1.1-0.1c0.6,0,1.2,0,1.8,0c0.4,0,0.8,0,1.1,0c0.6,0,1.2,0,1.8-0.1c0.4,0,0.9-0.1,1.3,0c0.3,0,0.6,0.1,0.9,0.1
		c0.7-0.1,1.4-0.1,2.2-0.1c0.1,0,0.2,0,0.3,0c0.4,0.2,0.8,0.2,1.3,0.1c0.9-0.1,1.9,0,2.8,0c0.4,0,0.8,0,1.2-0.1
		c0.4-0.2,0.9-0.1,1.3-0.1c0.6,0.1,1.1,0.1,1.7,0.1c0.4,0,0.7-0.1,1.1-0.1c0.4,0,0.8,0,1.2,0c0.6,0,1.2-0.1,1.8-0.1
		c0.5,0,1,0.1,1.5,0.1c0.6,0,1.2-0.1,1.9-0.1c0.8-0.1,1.7-0.2,2.5-0.2c0.5,0,0.9,0.1,1.4,0.1c0.8,0,1.6,0,2.4,0c0.7,0,1.3-0.1,2-0.1
		c0.5,0,1,0,1.6,0c0.3,0,0.5-0.1,0.8-0.1c0.6,0,1.1,0.2,1.7,0.2c0.7,0,1.4,0,2.1-0.1c0.3,0,0.6-0.1,0.8,0c0.5,0.2,1,0.1,1.5,0
		c0.5,0,0.9-0.1,1.4,0c0.5,0.1,1,0.1,1.6,0.2c0.7,0,1.4,0,2.1,0c0.4,0,0.9,0.1,1.3,0.1c0.1,0,0.3-0.1,0.4-0.1c0.6,0,1.2,0,1.8,0
		c1.5,0,2.9,0,4.4,0.1c0.1,0,0.2,0,0.4,0c0.6,0,1.2,0,1.8,0c0.7,0,1.5,0.1,2.2,0.1c0.2,0,0.5-0.1,0.7,0c0.9,0.2,1.9,0,2.8,0
		c0.6,0,1.3-0.1,1.9-0.2c0.6,0,1.1,0,1.7,0c0.9,0,1.8,0,2.7,0c0.6,0,1.3,0,1.9,0c0.2,0,0.4,0.1,0.5,0.1c0.5,0.1,1,0.1,1.4,0.2
		c0.2,0,0.4,0,0.6,0c0.5,0,0.9-0.1,1.4-0.1c0.5,0,0.9,0,1.4,0c0.3,0,0.6-0.1,0.9-0.1c0.4,0,0.8,0,1.1,0c1.1-0.2,2.1-0.1,3.2,0
		c0.6,0.1,1.2,0,1.8-0.1c0.3,0,0.7-0.1,1-0.1c0.4,0,0.9,0.1,1.3,0.1c0.4,0,0.8-0.1,1.1-0.2c0.6-0.1,1.1,0,1.6,0c0.5,0,1,0.1,1.5,0.2
		c-0.1-0.1-0.1-0.2-0.1-0.3c0.9,0,1.8,0,2.7,0c0.8,0,1.6,0.1,2.4,0.2c1,0,2,0,3,0.1c0.3,0,0.6,0.1,0.9,0.2c0.5,0.1,0.9,0.2,1.4,0.2
		c0,0,0.1,0,0.1,0c0.2,0,0.4,0,0.6,0c0.1,0,0.3,0.1,0.4,0.1c0.6-0.1,1.1,0.1,1.7,0c0.7-0.1,1.5,0.1,2.3,0.1c0.4,0,0.8,0,1.2,0
		c0.9,0,1.7,0.1,2.6,0c0.6-0.1,1.2,0,1.7,0c0.4,0,0.8,0,1.2,0c0.3,0,0.7-0.2,1-0.2c1,0,1.9,0,3-0.1c-0.2-0.3-0.3-0.6-0.4-0.8
		c-0.4-0.8-0.2-1.7-0.4-2.6c-0.1-0.3,0.1-0.7,0-1.1c0-0.4-0.2-0.9-0.2-1.3c0-0.7-0.3-1.4,0.2-2c0,0,0-0.1,0-0.2
		c0-0.3-0.1-0.6-0.1-0.9c0-0.5,0.1-1,0.2-1.6c0.2-1,0.3-2,0.8-2.9c0.1-0.2,0.3-0.5,0.4-0.7c0.1-0.4,0.1-0.8,0.3-1.2
		c0.3-0.6,0.6-1.2,0.9-1.8c0.1-0.3,0.1-0.3-0.2-0.3c-0.3,0-0.7,0-1,0c-0.6,0-1.3,0.1-1.9,0.1c-0.8,0-1.6,0.3-2.4,0.2
		c-0.5-0.1-1.1,0-1.6,0.1c-0.4,0-0.7,0.2-1.1,0.2c-0.7,0.1-1.4,0.1-2.1,0.1c-0.4,0-0.8,0-1.1,0c-0.7-0.1-1.3-0.2-2-0.1
		c-0.3,0.1-0.7,0.1-1,0c-1-0.1-2-0.2-2.9-0.3c-0.8-0.1-1.6,0-2.4,0c-0.7,0-1.4-0.1-2.1-0.1c-0.4,0-0.7,0.1-1.1,0.1
		c-0.4,0-0.7,0-1.1,0c-0.2,0-0.5,0-0.7,0c-0.5,0-1,0-1.5-0.1c-0.3,0-0.5,0-0.8,0c-0.3,0-0.7,0.1-1,0c-0.9-0.1-1.8,0.1-2.8-0.1
		c-0.4-0.1-0.9,0.1-1.4,0c-0.6,0-1.2-0.1-1.8-0.1c0,0,0,0,0,0c-0.3-0.4-0.8,0-1.1-0.2c-1.1,0.3-2.2-0.2-3.3,0
		c-0.4,0-0.9-0.1-1.3-0.1c-0.3,0-0.6,0.1-0.9,0c-0.5,0-1-0.1-1.5-0.2c-0.1,0-0.1,0-0.2,0c-0.4,0.2-0.8,0-1.2-0.1
		c-0.2-0.1-0.5,0-0.7,0c-0.4,0-0.8,0.2-1.1,0.2c-0.5,0-0.9-0.1-1.4-0.1c-0.2,0-0.3,0.1-0.5,0.1c-0.4-0.1-0.8-0.1-1.2-0.1
		c-0.3,0-0.7,0-1,0c-0.4,0-0.9-0.1-1.3-0.1c-0.1,0-0.3-0.1-0.4-0.1c-0.1,0-0.2,0-0.3,0c-0.1,0-0.2,0-0.3,0c-0.1,0-0.3-0.1-0.4-0.1
		c-0.4,0.2-0.8,0-1.2,0.1c-0.1,0-0.2,0.1-0.3,0.1c-0.4,0-0.9-0.1-1.3-0.1c-0.3,0-0.6,0.1-0.9,0.1c-0.2,0-0.5-0.1-0.7,0
		c-0.5,0.2-1,0.2-1.5,0.2c-0.5,0-1,0-1.5,0c-0.3,0-0.6,0-0.9,0c-0.2,0-0.3-0.1-0.5,0c-0.4,0.1-0.7,0.3-1-0.1c0,0-0.1,0-0.1,0
		c-0.7,0.2-1.4,0.1-2.1,0.2c-0.3,0-0.7,0-1.1,0.1c-0.5,0.1-0.9,0.1-1.4,0.1c-0.2,0-0.4-0.1-0.6-0.1c-0.6,0-1.2,0-1.8,0
		c-0.5,0-1-0.1-1.5-0.1c-0.2,0-0.4,0-0.6,0c-0.4,0-0.7,0.1-1.1,0.2c-0.7,0.1-1.5,0.1-2.2,0.2c-0.7,0.1-1.4,0.2-2.1,0.3
		c-0.6,0.1-1.2-0.1-1.8,0.1c-0.1,0-0.2,0-0.2,0c-0.1-0.2-0.2-0.1-0.4-0.1c-0.5,0.1-1,0.3-1.4,0.3c-1,0-2.1,0-3.1,0
		c-0.5,0-1.1,0-1.6,0c-0.3,0-0.7,0-1,0c-0.2,0-0.4-0.1-0.5-0.1c-0.8,0-1.6,0.1-2.5,0c-0.8,0-1.5-0.2-2.3-0.3c-0.2,0-0.4,0-0.6,0
		c-0.3-0.1-0.6-0.2-0.9,0c-0.1,0-0.2,0.1-0.2,0.1c-0.5,0-1-0.1-1.4-0.2c-1.1,0-2.3,0-3.4,0c-0.2,0-0.4-0.1-0.6-0.1
		c-0.3,0-0.6,0-0.9,0c-0.2,0-0.3,0-0.5,0c-0.2,0-0.4-0.1-0.6-0.1c-1.2,0-2.5,0-3.7,0c-0.1,0-0.3-0.1-0.4-0.1
		c-0.3,0.3-0.7,0.1-1.1,0.1c-0.5,0-0.9,0-1.4-0.1c-0.2,0-0.4-0.1-0.6,0c-0.3,0-0.7,0.1-1,0.1c-0.3,0-0.6-0.2-0.8-0.1
		c-0.4,0.1-0.7,0.1-1.1,0.1c-0.7,0-1.5,0.1-2.2,0.1c-0.5,0-0.9,0-1.4,0c-0.8,0-1.5,0-2.3,0.1c-0.2,0-0.5-0.1-0.7-0.1
		c-0.5,0-0.9,0.1-1.4,0.1c-0.9,0-1.8,0.1-2.6,0.1c-0.9,0-1.9,0-2.8,0c-0.3,0-0.5-0.1-0.8-0.1c-0.9,0-1.7,0-2.6,0c-0.2,0-0.4,0-0.7,0
		c-0.7,0-1.2-0.3-1.9-0.2c-0.9,0.1-1.9,0.1-2.8,0.1c-0.3,0-0.6,0-0.9,0c-0.5-0.2-1-0.2-1.6-0.1c-0.1,0-0.2,0-0.3,0
		C23.2,12.4,22.7,12.3,22.2,12.3z"/>
	<path class="st0" d="M22.2,12.3c0.5,0.1,1,0.1,1.4,0.2c0.1,0,0.2,0,0.3,0c0.5-0.1,1.1-0.1,1.6,0.1c0.3,0.1,0.6,0,0.9,0
		c0.9,0,1.9,0,2.8-0.1c0.7-0.1,1.3,0.2,1.9,0.2c0.2,0,0.4,0,0.7,0c0.9,0,1.7,0,2.6,0c0.3,0,0.5,0.1,0.8,0.1c0.9,0,1.9,0,2.8,0
		c0.9,0,1.8,0,2.6-0.1c0.5,0,0.9-0.1,1.4-0.1c0.2,0,0.4,0.1,0.7,0.1c0.8,0,1.5,0,2.3-0.1c0.5,0,0.9,0,1.4,0c0.7,0,1.5-0.1,2.2-0.1
		c0.4,0,0.7,0,1.1-0.1c0.2-0.1,0.5,0.1,0.8,0.1c0.3,0,0.7-0.1,1-0.1c0.2,0,0.4,0,0.6,0c0.5,0,0.9,0.1,1.4,0.1c0.4,0,0.7,0.2,1.1-0.1
		c0.1-0.1,0.3,0.1,0.4,0.1c1.2,0,2.5,0,3.7,0c0.2,0,0.4,0.1,0.6,0.1c0.2,0,0.3,0,0.5,0c0.3,0,0.7,0,0.9,0c0.2,0,0.4,0.1,0.6,0.1
		c1.1,0,2.3,0,3.4,0c0.5,0,1,0.1,1.4,0.2c0.1,0,0.2,0,0.2-0.1c0.3-0.1,0.6-0.1,0.9,0c0.2,0,0.4,0,0.6,0c0.8,0.1,1.5,0.2,2.3,0.3
		c0.8,0,1.6,0,2.5,0c0.2,0,0.4,0.1,0.5,0.1c0.3,0,0.7,0,1,0c0.5,0,1.1,0,1.6,0c1,0,2.1,0,3.1,0c0.5,0,1-0.2,1.4-0.3
		c0.1,0,0.3-0.1,0.4,0.1c0,0,0.1,0,0.2,0c0.6-0.1,1.2,0,1.8-0.1c0.7-0.1,1.4-0.2,2.1-0.3c0.7-0.1,1.5-0.1,2.2-0.2
		c0.4,0,0.7-0.1,1.1-0.2c0.2,0,0.4,0,0.6,0c0.5,0,1,0.1,1.5,0.1c0.6,0,1.2,0,1.8,0c0.2,0,0.4,0.1,0.6,0.1c0.5,0,0.9,0,1.4-0.1
		c0.4,0,0.7,0,1.1-0.1c0.7-0.1,1.4,0,2.1-0.2c0,0,0.1,0,0.1,0c0.3,0.3,0.7,0.1,1,0.1c0.1,0,0.3,0,0.5,0c0.3,0,0.6,0,0.9,0
		c0.5,0,1,0,1.5,0c0.5,0,1,0.1,1.5-0.2c0.2-0.1,0.5,0,0.7,0c0.3,0,0.6-0.1,0.9-0.1c0.4,0,0.9,0.1,1.3,0.1c0.1,0,0.2-0.1,0.3-0.1
		c0.4,0,0.8,0.1,1.2-0.1c0.1,0,0.3,0.1,0.4,0.1c0.1,0,0.2,0,0.3,0c0.1,0,0.2,0,0.3,0c0.1,0,0.3,0.1,0.4,0.1c0.4,0,0.9,0.1,1.3,0.1
		c0.3,0,0.7,0,1,0c0.4,0,0.8,0,1.2,0.1c0.2,0,0.3-0.1,0.5-0.1c0.5,0,0.9,0.1,1.4,0.1c0.4,0,0.8-0.1,1.1-0.2c0.2,0,0.5-0.1,0.7,0
		c0.4,0.2,0.8,0.3,1.2,0.1c0,0,0.1,0,0.2,0c0.5,0.1,1,0.2,1.5,0.2c0.3,0,0.6-0.1,0.9,0c0.4,0,0.9,0.1,1.3,0.1c1.1-0.1,2.2,0.3,3.3,0
		c0.3,0.3,0.8-0.1,1.1,0.2c0,0,0,0,0,0c0.6,0,1.2,0.1,1.8,0.1c0.5,0,0.9-0.1,1.4,0c0.9,0.2,1.8,0,2.8,0.1c0.3,0,0.7,0,1,0
		c0.3,0,0.5,0,0.8,0c0.5,0,1,0,1.5,0.1c0.2,0,0.5,0,0.7,0c0.4,0,0.7,0,1.1,0c0.4,0,0.7-0.1,1.1-0.1c0.7,0,1.4,0.1,2.1,0.1
		c0.8,0,1.6,0,2.4,0c1,0.1,2,0.2,2.9,0.3c0.3,0,0.7,0,1,0c0.7-0.1,1.3,0,2,0.1c0.4,0,0.8,0.1,1.1,0c0.7,0,1.4,0,2.1-0.1
		c0.4,0,0.7-0.2,1.1-0.2c0.5-0.1,1.1-0.1,1.6-0.1c0.8,0.1,1.6-0.2,2.4-0.2c0.6,0,1.2-0.1,1.9-0.1c0.3,0,0.7,0,1,0
		c0.3,0,0.3,0.1,0.2,0.3c-0.3,0.6-0.7,1.2-0.9,1.8c-0.2,0.4-0.2,0.8-0.3,1.2c-0.1,0.3-0.3,0.5-0.4,0.7c-0.4,0.9-0.6,1.9-0.8,2.9
		c-0.1,0.5-0.2,1-0.2,1.6c0,0.3,0.1,0.6,0.1,0.9c0,0.1,0,0.2,0,0.2c-0.4,0.6-0.2,1.3-0.2,2c0,0.4,0.1,0.9,0.2,1.3
		c0,0.4-0.1,0.7,0,1.1c0.3,0.8,0.1,1.8,0.4,2.6c0.1,0.2,0.3,0.5,0.4,0.8c-1.1,0-2,0-3,0.1c-0.3,0-0.7,0.2-1,0.2
		c-0.4,0-0.8,0.1-1.2,0c-0.6,0-1.1-0.1-1.7,0c-0.9,0.1-1.7,0-2.6,0c-0.4,0-0.8,0-1.2,0c-0.8,0-1.5-0.2-2.3-0.1
		c-0.6,0.1-1.1-0.1-1.7,0c-0.1,0-0.3-0.1-0.4-0.1c-0.2,0-0.4,0-0.6,0c0,0-0.1,0.1-0.1,0c-0.5-0.1-0.9-0.1-1.4-0.2
		c-0.3-0.1-0.6-0.2-0.9-0.2c-1,0-2,0-3-0.1c-0.8,0-1.6-0.2-2.4-0.2c-0.9,0-1.7,0-2.7,0c0.1,0.1,0.1,0.2,0.1,0.3
		c-0.5-0.1-1-0.1-1.5-0.2c-0.5-0.1-1.1-0.1-1.6,0c-0.4,0.1-0.8,0.2-1.1,0.2c-0.4,0-0.9-0.1-1.3-0.1c-0.3,0-0.7,0-1,0.1
		c-0.6,0-1.2,0.1-1.8,0.1c-1.1-0.1-2.1-0.1-3.2,0c-0.4,0.1-0.8,0-1.1,0c-0.3,0-0.6,0.1-0.9,0.1c-0.5,0-0.9,0-1.4,0
		c-0.5,0-0.9,0.1-1.4,0.1c-0.2,0-0.4,0-0.6,0c-0.5,0-1-0.1-1.4-0.2c-0.2,0-0.4-0.1-0.5-0.1c-0.6,0-1.3,0-1.9,0c-0.9,0-1.8,0-2.7,0
		c-0.6,0-1.1,0-1.7,0c-0.6,0-1.3,0.2-1.9,0.2c-0.9-0.1-1.9,0.2-2.8,0c-0.2-0.1-0.5,0.1-0.7,0c-0.7,0-1.5-0.1-2.2-0.1
		c-0.6,0-1.2,0-1.8,0c-0.1,0-0.2,0-0.4,0c-1.5,0-2.9-0.1-4.4-0.1c-0.6,0-1.2,0-1.8,0c-0.1,0-0.3,0.1-0.4,0.1c-0.4,0-0.9-0.1-1.3-0.1
		c-0.7,0-1.4,0-2.1,0c-0.5,0-1,0-1.6-0.2c-0.4-0.1-0.9,0-1.4,0c-0.5,0-1,0.1-1.5,0c-0.3-0.1-0.6,0-0.8,0c-0.7,0-1.4,0.1-2.1,0.1
		c-0.6,0-1.1-0.1-1.7-0.2c-0.3,0-0.5,0.1-0.8,0.1c-0.5,0-1,0-1.6,0c-0.7,0-1.3,0.1-2,0.1c-0.8,0-1.6,0-2.4,0c-0.5,0-0.9-0.1-1.4-0.1
		c-0.8,0-1.7,0.1-2.5,0.2c-0.6,0-1.2,0.1-1.9,0.1c-0.5,0-1-0.1-1.5-0.1c-0.6,0-1.2,0-1.8,0.1c-0.4,0-0.8,0-1.2,0
		c-0.4,0-0.7,0.1-1.1,0.1c-0.6,0-1.1,0-1.7-0.1c-0.4,0-0.9-0.1-1.3,0.1c-0.4,0.1-0.8,0.2-1.2,0.1c-0.9-0.1-1.9-0.1-2.8,0
		c-0.5,0.1-0.9,0-1.3-0.1c-0.1,0-0.2,0-0.3,0c-0.7,0-1.5,0-2.2,0.1c-0.3,0-0.6-0.1-0.9-0.1c-0.4-0.1-0.9,0-1.3,0
		c-0.6,0-1.2,0-1.8,0.1c-0.4,0-0.8,0-1.1,0c-0.6,0-1.2,0-1.8,0c-0.4,0-0.7,0.1-1.1,0.1c-0.2,0-0.4,0-0.6,0c-0.3,0-0.6,0-0.9,0
		c-0.5,0-1.1-0.1-1.6,0.1c-0.2,0.1-0.5-0.1-0.8-0.1c-0.4,0-0.7-0.1-1.1-0.1c-0.5,0-1,0-1.4,0c-0.4,0-0.8,0-1.2,0
		c-0.8,0.1-1.7,0.1-2.5,0c-0.3,0-0.7,0-1,0c-0.5,0-1.1,0.1-1.6,0c-0.7-0.1-1.4-0.1-2.1,0c-0.1,0-0.1,0-0.2,0c-0.7-0.3-1.3-0.2-2-0.3
		c-0.3,0-0.6-0.1-0.8-0.1c-0.3,0-0.6,0-0.9,0c-0.3,0-0.3-0.1-0.2-0.4c0.2-0.5,0.5-0.9,0.7-1.5c0.1-0.5,0.4-0.9,0.6-1.3
		c0.1-0.2,0.1-0.5,0.2-0.7c0.2-1,0.5-2,0.7-3c0.1-0.4,0.2-0.9,0.2-1.3c0-0.4,0.1-0.9,0-1.3c0-0.4,0-0.9,0-1.3c0-0.4,0-0.9-0.1-1.3
		c0-0.4-0.1-0.7-0.1-1.1c-0.1-0.4-0.1-0.8-0.2-1.3c0-0.2-0.2-0.4-0.2-0.5c-0.3-0.7-0.6-1.3-1.2-1.8C22.3,12.4,22.3,12.4,22.2,12.3z"
		/>
</g>
<g>
	<path class="st1" d="M45.3,19.1l-1-0.1l-0.3-1.9c-0.1-0.2-0.3-0.4-0.6-0.6s-0.7-0.3-1-0.3c-0.5,0-1,0.2-1.3,0.5s-0.5,0.8-0.5,1.4
		c0,0.3,0.1,0.6,0.2,0.8s0.3,0.5,0.5,0.7s0.5,0.4,0.8,0.6s0.6,0.3,0.9,0.5s0.6,0.3,0.9,0.5s0.6,0.4,0.9,0.6s0.5,0.4,0.8,0.7
		s0.4,0.5,0.5,0.9s0.2,0.7,0.2,1.1c0,0.5-0.1,1.1-0.4,1.5s-0.6,0.9-1,1.2s-0.9,0.6-1.4,0.7S42.6,28,42.1,28c-0.7,0-1.3-0.1-1.9-0.4
		s-1.1-0.6-1.4-1l0.1-2.6l1,0.1l0.4,1.8c0.2,0.3,0.5,0.6,0.8,0.8s0.8,0.3,1.2,0.3c0.3,0,0.5,0,0.8-0.1s0.5-0.2,0.7-0.4
		s0.4-0.4,0.6-0.6s0.2-0.6,0.2-0.9s-0.1-0.7-0.3-0.9c-0.2-0.3-0.5-0.5-0.8-0.7s-0.7-0.4-1.1-0.6s-0.8-0.4-1.2-0.7s-0.8-0.5-1.1-0.8
		s-0.6-0.6-0.8-1S39,19.3,39,18.8c0-0.7,0.2-1.3,0.6-1.9s0.8-0.9,1.4-1.2s1.2-0.4,1.8-0.4c1.1,0,2,0.3,2.8,1L45.3,19.1z"/>
	<path class="st1" d="M53.8,27.7h-5.3l0.1-0.7l1.6-0.5v-9.8l-1.8-0.4l0.1-0.7h5.3l-0.1,0.7l-1.7,0.4V21h6.1v-4.2l-1.8-0.4l0.1-0.7
		h5.3l-0.1,0.7l-1.6,0.4v9.9L62,27l-0.1,0.8h-5.3l0.1-0.7l1.6-0.5V22l-6.1,0v4.6L54,27L53.8,27.7z"/>
	<path class="st1" d="M76,21.7c0,0.9-0.1,1.7-0.4,2.4c-0.3,0.8-0.7,1.4-1.2,2c-0.5,0.6-1.2,1-2,1.4c-0.8,0.3-1.7,0.5-2.7,0.5
		c-1.1,0-2.1-0.3-2.9-0.8s-1.5-1.3-2-2.3s-0.7-2-0.7-3.2c0-1.2,0.3-2.4,0.8-3.3s1.2-1.7,2.2-2.3c1-0.5,2.1-0.8,3.3-0.8
		c0.7,0,1.3,0.1,1.9,0.3s1.1,0.5,1.6,0.9s0.8,0.9,1.2,1.4s0.6,1.1,0.7,1.8C75.9,20.4,76,21,76,21.7z M69.9,16.3
		c-2.4,0-3.7,1.6-3.7,4.9c0,0.6,0,1.2,0.1,1.7s0.2,1.1,0.4,1.6s0.5,0.9,0.8,1.3s0.7,0.7,1.1,0.9s0.9,0.3,1.5,0.3
		c0.6,0,1.1-0.1,1.5-0.3s0.8-0.4,1.1-0.7s0.5-0.7,0.6-1.1s0.3-0.9,0.3-1.3c0.1-0.4,0.1-0.9,0.1-1.4c0-0.6,0-1.1-0.1-1.7
		c-0.1-0.5-0.2-1.1-0.4-1.6s-0.5-1-0.8-1.3s-0.7-0.7-1.1-0.9S70.4,16.3,69.9,16.3z"/>
	<path class="st1" d="M87.9,19c0,0.6-0.1,1.1-0.4,1.6s-0.6,0.9-1,1.2s-0.9,0.6-1.4,0.8s-1.1,0.3-1.7,0.3c-0.2,0-0.6,0-1,0l-0.2-0.8
		l0.5,0c1,0,1.8-0.3,2.3-0.7s0.8-1.1,0.8-2c0-0.4-0.1-0.8-0.2-1.2s-0.3-0.7-0.5-1s-0.6-0.5-1-0.7s-0.9-0.2-1.4-0.2l-1,0.1v10.2
		l2.3,0.4L84,27.7h-5.8l0.1-0.7l1.7-0.5V17l-1.7-0.3l0.1-0.8c1.9-0.3,3.4-0.4,4.7-0.4C86.3,15.5,87.9,16.7,87.9,19z"/>
	<path class="st1" d="M104.8,28l-6.5-9.7v8.3l1.8,0.3l-0.1,0.8h-4.6l0.1-0.7l1.6-0.5v-9.7l-1.8-0.5l0.1-0.7h3.4l6.3,9.5v-8.3
		l-1.8-0.4l0.1-0.7h4.6l-0.1,0.7l-1.6,0.4v11L104.8,28z"/>
	<path class="st1" d="M122,21.7c0,0.9-0.1,1.7-0.4,2.4c-0.3,0.8-0.7,1.4-1.2,2c-0.5,0.6-1.2,1-2,1.4s-1.7,0.5-2.7,0.5
		c-1.1,0-2.1-0.3-2.9-0.8c-0.9-0.6-1.5-1.3-2-2.3c-0.5-1-0.7-2-0.7-3.2c0-1.2,0.3-2.4,0.8-3.3s1.2-1.7,2.2-2.3
		c1-0.5,2.1-0.8,3.3-0.8c0.7,0,1.3,0.1,1.9,0.3c0.6,0.2,1.1,0.5,1.6,0.9s0.8,0.9,1.2,1.4s0.6,1.1,0.7,1.8
		C121.9,20.4,122,21,122,21.7z M115.9,16.3c-2.4,0-3.7,1.6-3.7,4.9c0,0.6,0,1.2,0.1,1.7c0.1,0.6,0.2,1.1,0.4,1.6s0.5,0.9,0.8,1.3
		c0.3,0.4,0.7,0.7,1.1,0.9c0.4,0.2,0.9,0.3,1.5,0.3c0.6,0,1.1-0.1,1.5-0.3s0.8-0.4,1.1-0.7c0.3-0.3,0.5-0.7,0.6-1.1s0.3-0.9,0.3-1.3
		c0.1-0.4,0.1-0.9,0.1-1.4c0-0.6,0-1.1-0.1-1.7c-0.1-0.5-0.2-1.1-0.4-1.6s-0.5-1-0.8-1.3c-0.3-0.4-0.7-0.7-1.1-0.9
		S116.4,16.3,115.9,16.3z"/>
	<path class="st1" d="M135.5,28l-2.6-9.5l-2.8,9.2l-1.6,0.3l-3.2-11.2l-1.4-0.4l0.1-0.7h5l-0.1,0.7l-1.6,0.4l2.4,8.4l2.7-9l1.7-0.2
		l2.4,9.1l2.5-8.2l-1.8-0.4l0.1-0.7h4.4l-0.1,0.7l-1.2,0.4l-3.6,11L135.5,28z"/>
</g>
</svg>
